{
  "title": "sample binary vector parameters",
  "components": [
    {
      "cid": "H2O",
      "name": "water",
      "cas": "1-11-111",
      "formula": "H2O"
    },
    {
      "cid": "EtOH",
      "name": "ethanol",
      "cas": "3-333-33",
      "formula": "CH3CH2OH"
    }
  ],
  "binary_vector": [
    {
      "name": "NRTL_TAU",
      "parameters": [
        {
          "cid1": "H2O",
          "cid2": "EtOH",
          "parameters": [
            1,
            2,
            3,
            4
          ]
        }
      ]
    }
  ]
}